{
  "resource_uri": "http://www.courtlistener.com/api/rest/v3/clusters/1727/",
  "absolute_url": "/opinion/1727/united-student-aid-funds-inc-v-espinosa/",
  "panel": [],
  "non_participating_judges": [],
  "docket": "http://www.courtlistener.com/api/rest/v3/dockets/27787/",
  "sub_opinions": [
    "http://www.courtlistener.com/api/rest/v3/opinions/1727/"
  ],
  "judges": "",
  "per_curiam": false,
  "date_created": "2015-10-30T23:15:32.305288Z",
  "date_modified": "2015-11-08T00:27:05.147404Z",
  "date_filed": "2010-03-23",
  "slug": "united-student-aid-funds-inc-v-espinosa",
  "citation_id": 1728,
  "case_name_short": "Espinosa",
  "case_name": "United Student Aid Funds, Inc. v. Espinosa",
  "case_name_full": "",
  "federal_cite_one": "559 U.S. 260",
  "federal_cite_two": "130 S. Ct. 1367",
  "federal_cite_three": "176 L. Ed. 2d 158",
  "state_cite_one": "",
  "state_cite_two": "",
  "state_cite_three": "",
  "state_cite_regional": "",
  "specialty_cite_one": "",
  "scotus_early_cite": "",
  "lexis_cite": "2010 U.S. LEXIS 2750",
  "westlaw_cite": "",
  "neutral_cite": "",
  "scdb_id": "2009-038",
  "scdb_decision_direction": 2,
  "scdb_votes_majority": 9,
  "scdb_votes_minority": 0,
  "source": "C",
  "procedural_history": "",
  "attorneys": "",
  "nature_of_suit": "",
  "posture": "",
  "syllabus": "",
  "citation_count": 184,
  "precedential_status": "Published",
  "date_blocked": null,
  "blocked": false
}