{
  "resource_uri": "http://www.courtlistener.com/api/rest/v3/clusters/1731/",
  "absolute_url": "/opinion/1731/reed-elsevier-inc-v-muchnick/",
  "panel": [],
  "non_participating_judges": [],
  "docket": "http://www.courtlistener.com/api/rest/v3/dockets/1114380/",
  "sub_opinions": [
    "http://www.courtlistener.com/api/rest/v3/opinions/1731/"
  ],
  "judges": "",
  "per_curiam": false,
  "date_created": "2015-10-16T00:44:17.775721Z",
  "date_modified": "2015-11-08T00:27:04.880485Z",
  "date_filed": "2010-03-02",
  "slug": "reed-elsevier-inc-v-muchnick",
  "citation_id": 1732,
  "case_name_short": "Muchnick",
  "case_name": "Reed Elsevier, Inc. v. Muchnick",
  "case_name_full": "",
  "federal_cite_one": "559 U.S. 154",
  "federal_cite_two": "130 S. Ct. 1237",
  "federal_cite_three": "176 L. Ed. 2d 18",
  "state_cite_one": "",
  "state_cite_two": "",
  "state_cite_three": "",
  "state_cite_regional": "",
  "specialty_cite_one": "",
  "scotus_early_cite": "",
  "lexis_cite": "2010 U.S. LEXIS 2202",
  "westlaw_cite": "",
  "neutral_cite": "",
  "scdb_id": "2009-028",
  "scdb_decision_direction": 1,
  "scdb_votes_majority": 8,
  "scdb_votes_minority": 0,
  "source": "C",
  "procedural_history": "",
  "attorneys": "",
  "nature_of_suit": "",
  "posture": "",
  "syllabus": "",
  "citation_count": 192,
  "precedential_status": "Published",
  "date_blocked": null,
  "blocked": false
}