{
  "resource_uri": "http://www.courtlistener.com/api/rest/v3/clusters/1722/",
  "absolute_url": "/opinion/1722/shady-grove-orthopedic-associates-p-a-v-allstate-ins-co/",
  "panel": [],
  "non_participating_judges": [],
  "docket": "http://www.courtlistener.com/api/rest/v3/dockets/323315/",
  "sub_opinions": [
    "http://www.courtlistener.com/api/rest/v3/opinions/1722/"
  ],
  "judges": "",
  "per_curiam": false,
  "date_created": "2015-10-16T15:46:34.280159Z",
  "date_modified": "2015-12-11T20:38:03.084442Z",
  "date_filed": "2010-03-31",
  "slug": "shady-grove-orthopedic-associates-p-a-v-allstate-ins-co",
  "citation_id": 1723,
  "case_name_short": "Shady Grove",
  "case_name": "Shady Grove Orthopedic Associates, P. A. v. Allstate Ins. Co.",
  "case_name_full": "",
  "federal_cite_one": "559 U.S. 393",
  "federal_cite_two": "130 S. Ct. 1431",
  "federal_cite_three": "176 L. Ed. 2d 311",
  "state_cite_one": "",
  "state_cite_two": "",
  "state_cite_three": "",
  "state_cite_regional": "",
  "specialty_cite_one": "",
  "scotus_early_cite": "",
  "lexis_cite": "2010 U.S. LEXIS 2929",
  "westlaw_cite": "",
  "neutral_cite": "",
  "scdb_id": "2009-033",
  "scdb_decision_direction": 2,
  "scdb_votes_majority": 5,
  "scdb_votes_minority": 4,
  "source": "C",
  "procedural_history": "",
  "attorneys": "",
  "nature_of_suit": "",
  "posture": "",
  "syllabus": "",
  "citation_count": 58,
  "precedential_status": "Published",
  "date_blocked": null,
  "blocked": false
}