{
  "resource_uri": "http://www.courtlistener.com/api/rest/v3/clusters/1732/",
  "absolute_url": "/opinion/1732/johnson-v-united-states/",
  "panel": [],
  "non_participating_judges": [],
  "docket": "http://www.courtlistener.com/api/rest/v3/dockets/246840/",
  "sub_opinions": [
    "http://www.courtlistener.com/api/rest/v3/opinions/1732/"
  ],
  "judges": "",
  "per_curiam": false,
  "date_created": "2015-10-30T23:15:54.799697Z",
  "date_modified": "2015-12-11T20:38:03.142874Z",
  "date_filed": "2010-03-02",
  "slug": "johnson-v-united-states",
  "citation_id": 1733,
  "case_name_short": "Johnson",
  "case_name": "Johnson v. United States",
  "case_name_full": "",
  "federal_cite_one": "559 U.S. 133",
  "federal_cite_two": "130 S. Ct. 1265",
  "federal_cite_three": "176 L. Ed. 2d 1",
  "state_cite_one": "",
  "state_cite_two": "",
  "state_cite_three": "",
  "state_cite_regional": "",
  "specialty_cite_one": "",
  "scotus_early_cite": "",
  "lexis_cite": "2010 U.S. LEXIS 2201",
  "westlaw_cite": "",
  "neutral_cite": "",
  "scdb_id": "2009-029",
  "scdb_decision_direction": 2,
  "scdb_votes_majority": 7,
  "scdb_votes_minority": 2,
  "source": "C",
  "procedural_history": "",
  "attorneys": "",
  "nature_of_suit": "",
  "posture": "",
  "syllabus": "",
  "citation_count": 461,
  "precedential_status": "Published",
  "date_blocked": null,
  "blocked": false
}