{
  "resource_uri": "http://www.courtlistener.com/api/rest/v3/clusters/1734/",
  "absolute_url": "/opinion/1734/maryland-v-shatzer/",
  "panel": [],
  "non_participating_judges": [],
  "docket": "http://www.courtlistener.com/api/rest/v3/dockets/1114379/",
  "sub_opinions": [
    "http://www.courtlistener.com/api/rest/v3/opinions/1734/"
  ],
  "judges": "",
  "per_curiam": false,
  "date_created": "2015-10-29T04:32:46.972224Z",
  "date_modified": "2015-11-08T00:27:04.713513Z",
  "date_filed": "2010-02-24",
  "slug": "maryland-v-shatzer",
  "citation_id": 1735,
  "case_name_short": "Shatzer",
  "case_name": "Maryland v. Shatzer",
  "case_name_full": "",
  "federal_cite_one": "559 U.S. 98",
  "federal_cite_two": "130 S. Ct. 1213",
  "federal_cite_three": "175 L. Ed. 2d 1045",
  "state_cite_one": "",
  "state_cite_two": "",
  "state_cite_three": "",
  "state_cite_regional": "",
  "specialty_cite_one": "",
  "scotus_early_cite": "",
  "lexis_cite": "2010 U.S. LEXIS 1899",
  "westlaw_cite": "",
  "neutral_cite": "",
  "scdb_id": "2009-022",
  "scdb_decision_direction": 1,
  "scdb_votes_majority": 9,
  "scdb_votes_minority": 0,
  "source": "C",
  "procedural_history": "",
  "attorneys": "",
  "nature_of_suit": "",
  "posture": "",
  "syllabus": "",
  "citation_count": 128,
  "precedential_status": "Published",
  "date_blocked": null,
  "blocked": false
}