{
  "resource_uri": "http://www.courtlistener.com/api/rest/v3/clusters/1741/",
  "absolute_url": "/opinion/1741/citizens-united-v-federal-election-comn/",
  "panel": [],
  "non_participating_judges": [],
  "docket": "http://www.courtlistener.com/api/rest/v3/dockets/1114382/",
  "sub_opinions": [
    "http://www.courtlistener.com/api/rest/v3/opinions/1741/"
  ],
  "judges": "Kennedy",
  "per_curiam": false,
  "date_created": "2015-10-22T18:40:13.289590Z",
  "date_modified": "2015-12-11T20:38:03.198094Z",
  "date_filed": "2010-01-21",
  "slug": "citizens-united-v-federal-election-comn",
  "citation_id": 1742,
  "case_name_short": "Citizens United",
  "case_name": "Citizens United v. Federal Election Com'n",
  "case_name_full": "",
  "federal_cite_one": "558 U.S. 310",
  "federal_cite_two": "130 S. Ct. 876",
  "federal_cite_three": "175 L. Ed. 2d 753",
  "state_cite_one": "",
  "state_cite_two": "",
  "state_cite_three": "",
  "state_cite_regional": "",
  "specialty_cite_one": "",
  "scotus_early_cite": "",
  "lexis_cite": "2010 U.S. LEXIS 766",
  "westlaw_cite": "",
  "neutral_cite": "",
  "scdb_id": "2009-012",
  "scdb_decision_direction": 1,
  "scdb_votes_majority": 5,
  "scdb_votes_minority": 4,
  "source": "LC",
  "procedural_history": "",
  "attorneys": "",
  "nature_of_suit": "",
  "posture": "",
  "syllabus": "",
  "citation_count": 345,
  "precedential_status": "Published",
  "date_blocked": null,
  "blocked": false
}