{
  "resource_uri": "http://www.courtlistener.com/api/rest/v3/clusters/1744/",
  "absolute_url": "/opinion/1744/kucana-v-holder/",
  "panel": [],
  "non_participating_judges": [],
  "docket": "http://www.courtlistener.com/api/rest/v3/dockets/246841/",
  "sub_opinions": [
    "http://www.courtlistener.com/api/rest/v3/opinions/1744/"
  ],
  "judges": "",
  "per_curiam": false,
  "date_created": "2015-10-16T01:00:53.849427Z",
  "date_modified": "2015-11-08T00:27:04.505672Z",
  "date_filed": "2010-01-20",
  "slug": "kucana-v-holder",
  "citation_id": 1745,
  "case_name_short": "Kucana",
  "case_name": "Kucana v. Holder",
  "case_name_full": "",
  "federal_cite_one": "558 U.S. 233",
  "federal_cite_two": "130 S. Ct. 827",
  "federal_cite_three": "175 L. Ed. 2d 694",
  "state_cite_one": "",
  "state_cite_two": "",
  "state_cite_three": "",
  "state_cite_regional": "",
  "specialty_cite_one": "",
  "scotus_early_cite": "",
  "lexis_cite": "2010 U.S. LEXIS 764",
  "westlaw_cite": "",
  "neutral_cite": "",
  "scdb_id": "2009-015",
  "scdb_decision_direction": 2,
  "scdb_votes_majority": 9,
  "scdb_votes_minority": 0,
  "source": "C",
  "procedural_history": "",
  "attorneys": "",
  "nature_of_suit": "",
  "posture": "",
  "syllabus": "",
  "citation_count": 247,
  "precedential_status": "Published",
  "date_blocked": null,
  "blocked": false
}