{
  "resource_uri": "http://www.courtlistener.com/api/rest/v3/clusters/1749/",
  "absolute_url": "/opinion/1749/smith-v-spisak/",
  "panel": [],
  "non_participating_judges": [],
  "docket": "http://www.courtlistener.com/api/rest/v3/dockets/94880/",
  "sub_opinions": [
    "http://www.courtlistener.com/api/rest/v3/opinions/1749/"
  ],
  "judges": "",
  "per_curiam": false,
  "date_created": "2015-10-14T01:22:08.924930Z",
  "date_modified": "2015-11-08T00:27:04.650120Z",
  "date_filed": "2010-01-12",
  "slug": "smith-v-spisak",
  "citation_id": 1750,
  "case_name_short": "Spisak",
  "case_name": "Smith v. Spisak",
  "case_name_full": "",
  "federal_cite_one": "558 U.S. 139",
  "federal_cite_two": "130 S. Ct. 676",
  "federal_cite_three": "175 L. Ed. 2d 595",
  "state_cite_one": "",
  "state_cite_two": "",
  "state_cite_three": "",
  "state_cite_regional": "",
  "specialty_cite_one": "",
  "scotus_early_cite": "",
  "lexis_cite": "2010 U.S. LEXIS 530",
  "westlaw_cite": "",
  "neutral_cite": "",
  "scdb_id": "2009-020",
  "scdb_decision_direction": 1,
  "scdb_votes_majority": 9,
  "scdb_votes_minority": 0,
  "source": "C",
  "procedural_history": "",
  "attorneys": "",
  "nature_of_suit": "",
  "posture": "",
  "syllabus": "",
  "citation_count": 71,
  "precedential_status": "Published",
  "date_blocked": null,
  "blocked": false
}