{
  "resource_uri": "http://www.courtlistener.com/api/rest/v3/clusters/2145/",
  "absolute_url": "/opinion/2145/jackson-v-district-of-columbia-board-of-elections-/",
  "panel": [],
  "non_participating_judges": [],
  "docket": "http://www.courtlistener.com/api/rest/v3/dockets/1114417/",
  "sub_opinions": [
    "http://www.courtlistener.com/api/rest/v3/opinions/2145/"
  ],
  "judges": "",
  "per_curiam": false,
  "date_created": "2014-12-21T07:42:05.267000Z",
  "date_modified": "2014-12-21T07:42:05.267000Z",
  "date_filed": "2010-03-02",
  "slug": "jackson-v-district-of-columbia-board-of-elections-",
  "citation_id": 2134,
  "case_name_short": "",
  "case_name": "Jackson v. District of Columbia Board of Elections and Ethics",
  "case_name_full": "",
  "federal_cite_one": "",
  "federal_cite_two": "",
  "federal_cite_three": "",
  "state_cite_one": "",
  "state_cite_two": "",
  "state_cite_three": "",
  "state_cite_regional": "",
  "specialty_cite_one": "",
  "scotus_early_cite": "",
  "lexis_cite": "",
  "westlaw_cite": "",
  "neutral_cite": "",
  "scdb_id": "",
  "scdb_decision_direction": null,
  "scdb_votes_majority": null,
  "scdb_votes_minority": null,
  "source": "C",
  "procedural_history": "",
  "attorneys": "",
  "nature_of_suit": "",
  "posture": "",
  "syllabus": "",
  "citation_count": 0,
  "precedential_status": "In-chambers",
  "date_blocked": null,
  "blocked": false
}