n.case_name,i.case_name,i.date_filed
Standard Oil Co. v. New Jersey,Pennoyer v. Neff,1878-01-21
Standard Oil Co. v. New Jersey,Campbell v. Holt,1885-12-07
Standard Oil Co. v. New Jersey,Blackstone v. Miller,1903-01-26
Standard Oil Co. v. New Jersey,Harris v. Balk,1905-05-08
Standard Oil Co. v. New Jersey,Provident Institution for Sav. v. Malone,1911-05-29
Standard Oil Co. v. New Jersey,Christianson v. King County,1915-12-13
Standard Oil Co. v. New Jersey,Security Savings Bank v. California,1923-11-19
Standard Oil Co. v. New Jersey,Great Northern R. Co. v. Sutherland,1927-01-24
Standard Oil Co. v. New Jersey,Wuchter v. Pizzutti,1928-02-20
Standard Oil Co. v. New Jersey,Farmers Loan & Trust Co. v. Minnesota,1930-01-06
Standard Oil Co. v. New Jersey,First Nat. Bank of Boston v. Maine,1932-01-04
Standard Oil Co. v. New Jersey,State of Texas v. State of Florida,1939-03-27
Standard Oil Co. v. New Jersey,Curry v. McCanless,1939-05-29
Standard Oil Co. v. New Jersey,State Tax Comm'n of Utah v. Aldrich,1942-05-04
Standard Oil Co. v. New Jersey,Anderson Nat. Bank v. Luckett,1944-02-28
Standard Oil Co. v. New Jersey,Chase Securities Corp. v. Donaldson,1945-06-18
Standard Oil Co. v. New Jersey,Connecticut Mut. Life Ins. Co. v. Moore,1948-03-29
Standard Oil Co. v. New Jersey,Estin v. Estin,1948-06-07
Standard Oil Co. v. New Jersey,Treichler v. Wisconsin,1949-11-07
Standard Oil Co. v. New Jersey,United States v. Burnison,1950-03-13
Standard Oil Co. v. New Jersey,Mullane v. Central Hanover Bank & Trust Co.,1950-06-05